[
  {
    "sourceTag": "kff1006",
    "sourceUnit": null,
    "internalTag": "LAT"
  },
  {
    "sourceTag": "kff1005",
    "sourceUnit": null,
    "internalTag": "LON"
  },
  {
    "sourceTag": "kff1001",
    "sourceUnit": "km/h",
    "internalTag": "GPS_SPEED"
  },
  {
    "sourceTag": "kff1009",
    "sourceUnit": "km/h",
    "internalTag": "OBD_SPEED"
  },
  {
    "sourceTag": "kff05",
    "sourceUnit": "°C",
    "internalTag": "COOLANT_TEMP"
  },
  {
    "sourceTag": "kff1220",
    "sourceUnit": "g",
    "internalTag": "ACC_X"
  },
  {
    "sourceTag": "kff1221",
    "sourceUnit": "g",
    "internalTag": "ACC_Y"
  },
  {
    "sourceTag": "kff1222",
    "sourceUnit": "g",
    "internalTag": "ACC_Z"
  },
  {
    "sourceTag": "kff1223",
    "sourceUnit": "g",
    "internalTag": "ACC_TOTAL"
  },
  {
    "sourceTag": "time",
    "sourceUnit": "ms",
    "internalTag": "EVENT_TIME"
  },
  {
    "sourceTag": "kff129a",
    "sourceUnit": "%",
    "internalTag": "DEVICE_BATTERY_LEVEL"
  },
  {
    "sourceTag": "kff1270",
    "sourceUnit": "hPa",
    "internalTag": "DEVICE_AIR_PRESSURE"
  }




]